Workshop: An Interactive Introduction to R Spatial Packages: Incorporating Historic Sociodemographic Data from the US Census and Population Life Expectancy in Static and Animated Maps - 2 Introduction
…
We can see that the label and concept columns have variable information. The stingr::str_detect() function along with dplyr::filter() allows us to search text strings for key words. We can use it to find the variable names related to median household income and educational attainment.

Median household income: We can see that the variable B06011_001 is an estimate for the median household income for the total population

varlookup_2015_tract |> 
  dplyr::filter(concept |> stringr::str_detect("MEDIAN INCOME"))

# A tibble: 25 × 4
   name       label                                            concept geography
   <chr>      <chr>                                            <chr>   <chr>    
 1 B06011_001 Estimate!!Median income in the past 12 months!!… MEDIAN… tract    
 2 B06011_002 Estimate!!Median income in the past 12 months!!… MEDIAN… tract    
 3 B06011_003 Estimate!!Median income in the past 12 months!!… MEDIAN… tract    
 4 B06011_004 Estimate!!Median income in the past 12 months!!… MEDIAN… tract    
 5 B06011_005 Estimate!!Median income in the past 12 months!!… MEDIAN… tract    
 6 B07011_001 Estimate!!Median income in the past 12 months!!… MEDIAN… tract    
 7 B07011_002 Estimate!!Median income in the past 12 months!!… MEDIAN… tract    
 8 B07011_003 Estimate!!Median income in the past 12 months!!… MEDIAN… tract    
 9 B07011_004 Estimate!!Median income in the past 12 months!!… MEDIAN… tract    
10 B07011_005 Estimate!!Median income in the past 12 months!!… MEDIAN… tract    
# ℹ 15 more rows
…
varlookup_2015_tract |> 
  dplyr::filter(concept |> stringr::str_detect("GINI"))

# A tibble: 1 × 4
  name       label                concept                         geography
  <chr>      <chr>                <chr>                           <chr>    
1 B19083_001 Estimate!!Gini Index GINI INDEX OF INCOME INEQUALITY tract    

Educational attainment: We can see that the variables B06009_001, B06009_002, B06009_003, B06009_004, B06009_005 are estimates related to educational attainment (B06009_002 for less than high school, B06009_003 for high school graduate, B06009_003 for some college, B06009_004 for bachelor’s, and B06009_005 for graduate) for the total population.

varlookup_2015_tract |> 
  dplyr::filter(concept |> stringr::str_detect("EDUCATION"))

# A tibble: 471 × 4
   name       label                                            concept geography
   <chr>      <chr>                                            <chr>   <chr>    
 1 B06009_001 Estimate!!Total                                  PLACE … tract    
 2 B06009_002 Estimate!!Total!!Less than high school graduate  PLACE … tract    
 3 B06009_003 Estimate!!Total!!High school graduate (includes… PLACE … tract    
 4 B06009_004 Estimate!!Total!!Some college or associate's de… PLACE … tract    
 5 B06009_005 Estimate!!Total!!Bachelor's degree               PLACE … tract    
 6 B06009_006 Estimate!!Total!!Graduate or professional degree PLACE … tract    
 7 B06009_007 Estimate!!Total!!Born in state of residence      PLACE … tract    
 8 B06009_008 Estimate!!Total!!Born in state of residence!!Le… PLACE … tract    
 9 B06009_009 Estimate!!Total!!Born in state of residence!!Hi… PLACE … tract    
10 B06009_010 Estimate!!Total!!Born in state of residence!!So… PLACE … tract    
# ℹ 461 more rows

Nativity: We can see that the variable B05002_013 is an estimate for those who were foreign-born (with the B05002_001 representing the total column).

varlookup_2015_tract |> 
  dplyr::filter(concept |> stringr::str_detect("NATIVITY")) |> print(n = 20)

# A tibble: 534 × 4
   name       label                                            concept geography
   <chr>      <chr>                                            <chr>   <chr>    
 1 B05001_001 Estimate!!Total                                  NATIVI… tract    
 2 B05001_002 Estimate!!Total!!U.S. citizen, born in the Unit… NATIVI… tract    
 3 B05001_003 Estimate!!Total!!U.S. citizen, born in Puerto R… NATIVI… tract    
 4 B05001_004 Estimate!!Total!!U.S. citizen, born abroad of A… NATIVI… tract    
 5 B05001_005 Estimate!!Total!!U.S. citizen by naturalization  NATIVI… tract    
 6 B05001_006 Estimate!!Total!!Not a U.S. citizen              NATIVI… tract    
 7 B05002_001 Estimate!!Total                                  PLACE … tract    
 8 B05002_002 Estimate!!Total!!Native                          PLACE … tract    
 9 B05002_003 Estimate!!Total!!Native!!Born in state of resid… PLACE … tract    
10 B05002_004 Estimate!!Total!!Native!!Born in other state in… PLACE … tract    
11 B05002_005 Estimate!!Total!!Native!!Born in other state in… PLACE … tract    
12 B05002_006 Estimate!!Total!!Native!!Born in other state in… PLACE … tract    
13 B05002_007 Estimate!!Total!!Native!!Born in other state in… PLACE … tract    
14 B05002_008 Estimate!!Total!!Native!!Born in other state in… PLACE … tract    
15 B05002_009 Estimate!!Total!!Native!!Born outside the Unite… PLACE … tract    
16 B05002_010 Estimate!!Total!!Native!!Born outside the Unite… PLACE … tract    
17 B05002_011 Estimate!!Total!!Native!!Born outside the Unite… PLACE … tract    
18 B05002_012 Estimate!!Total!!Native!!Born outside the Unite… PLACE … tract    
19 B05002_013 Estimate!!Total!!Foreign born                    PLACE … tract    
20 B05002_014 Estimate!!Total!!Foreign born!!Naturalized U.S.… PLACE … tract    
# ℹ 514 more rows
…
